-- Merging decision tree log ---
manifest
ADDED from /Users/rsladek/Sources/coursera_java-for-android/week2/assignment/src/app/src/main/AndroidManifest.xml:2:1-20:12
	package
		ADDED from /Users/rsladek/Sources/coursera_java-for-android/week2/assignment/src/app/src/main/AndroidManifest.xml:3:5-47
		INJECTED from /Users/rsladek/Sources/coursera_java-for-android/week2/assignment/src/app/src/main/AndroidManifest.xml
		INJECTED from /Users/rsladek/Sources/coursera_java-for-android/week2/assignment/src/app/src/main/AndroidManifest.xml
	android:versionName
		INJECTED from /Users/rsladek/Sources/coursera_java-for-android/week2/assignment/src/app/src/main/AndroidManifest.xml
		INJECTED from /Users/rsladek/Sources/coursera_java-for-android/week2/assignment/src/app/src/main/AndroidManifest.xml
	xmlns:android
		ADDED from /Users/rsladek/Sources/coursera_java-for-android/week2/assignment/src/app/src/main/AndroidManifest.xml:2:11-69
	android:versionCode
		INJECTED from /Users/rsladek/Sources/coursera_java-for-android/week2/assignment/src/app/src/main/AndroidManifest.xml
		INJECTED from /Users/rsladek/Sources/coursera_java-for-android/week2/assignment/src/app/src/main/AndroidManifest.xml
application
ADDED from /Users/rsladek/Sources/coursera_java-for-android/week2/assignment/src/app/src/main/AndroidManifest.xml:5:5-18:19
MERGED from [com.android.support:appcompat-v7:22.2.1] /Users/rsladek/Sources/coursera_java-for-android/week2/assignment/src/app/build/intermediates/exploded-aar/com.android.support/appcompat-v7/22.2.1/AndroidManifest.xml:22:5-20
MERGED from [com.android.support:support-v4:22.2.1] /Users/rsladek/Sources/coursera_java-for-android/week2/assignment/src/app/build/intermediates/exploded-aar/com.android.support/support-v4/22.2.1/AndroidManifest.xml:22:5-20
MERGED from [com.android.support:design:22.2.1] /Users/rsladek/Sources/coursera_java-for-android/week2/assignment/src/app/build/intermediates/exploded-aar/com.android.support/design/22.2.1/AndroidManifest.xml:22:5-20
MERGED from [com.android.support:appcompat-v7:22.2.1] /Users/rsladek/Sources/coursera_java-for-android/week2/assignment/src/app/build/intermediates/exploded-aar/com.android.support/appcompat-v7/22.2.1/AndroidManifest.xml:22:5-20
MERGED from [com.android.support:support-v4:22.2.1] /Users/rsladek/Sources/coursera_java-for-android/week2/assignment/src/app/build/intermediates/exploded-aar/com.android.support/support-v4/22.2.1/AndroidManifest.xml:22:5-20
MERGED from [com.android.support:support-v4:22.2.1] /Users/rsladek/Sources/coursera_java-for-android/week2/assignment/src/app/build/intermediates/exploded-aar/com.android.support/support-v4/22.2.1/AndroidManifest.xml:22:5-20
	android:label
		ADDED from /Users/rsladek/Sources/coursera_java-for-android/week2/assignment/src/app/src/main/AndroidManifest.xml:8:9-41
	android:supportsRtl
		ADDED from /Users/rsladek/Sources/coursera_java-for-android/week2/assignment/src/app/src/main/AndroidManifest.xml:9:9-35
	android:allowBackup
		ADDED from /Users/rsladek/Sources/coursera_java-for-android/week2/assignment/src/app/src/main/AndroidManifest.xml:6:9-35
	android:icon
		ADDED from /Users/rsladek/Sources/coursera_java-for-android/week2/assignment/src/app/src/main/AndroidManifest.xml:7:9-43
	android:theme
		ADDED from /Users/rsladek/Sources/coursera_java-for-android/week2/assignment/src/app/src/main/AndroidManifest.xml:10:9-40
activity#mooc.vandy.java4android.diamonds.ui.MainActivity
ADDED from /Users/rsladek/Sources/coursera_java-for-android/week2/assignment/src/app/src/main/AndroidManifest.xml:11:9-17:20
	android:name
		ADDED from /Users/rsladek/Sources/coursera_java-for-android/week2/assignment/src/app/src/main/AndroidManifest.xml:11:19-82
intent-filter#android.intent.action.MAIN+android.intent.category.LAUNCHER
ADDED from /Users/rsladek/Sources/coursera_java-for-android/week2/assignment/src/app/src/main/AndroidManifest.xml:12:13-16:29
action#android.intent.action.MAIN
ADDED from /Users/rsladek/Sources/coursera_java-for-android/week2/assignment/src/app/src/main/AndroidManifest.xml:13:17-69
	android:name
		ADDED from /Users/rsladek/Sources/coursera_java-for-android/week2/assignment/src/app/src/main/AndroidManifest.xml:13:25-66
category#android.intent.category.LAUNCHER
ADDED from /Users/rsladek/Sources/coursera_java-for-android/week2/assignment/src/app/src/main/AndroidManifest.xml:15:17-77
	android:name
		ADDED from /Users/rsladek/Sources/coursera_java-for-android/week2/assignment/src/app/src/main/AndroidManifest.xml:15:27-74
uses-sdk
INJECTED from /Users/rsladek/Sources/coursera_java-for-android/week2/assignment/src/app/src/main/AndroidManifest.xml reason: use-sdk injection requested
MERGED from [com.android.support:appcompat-v7:22.2.1] /Users/rsladek/Sources/coursera_java-for-android/week2/assignment/src/app/build/intermediates/exploded-aar/com.android.support/appcompat-v7/22.2.1/AndroidManifest.xml:20:5-43
MERGED from [com.android.support:support-v4:22.2.1] /Users/rsladek/Sources/coursera_java-for-android/week2/assignment/src/app/build/intermediates/exploded-aar/com.android.support/support-v4/22.2.1/AndroidManifest.xml:20:5-43
MERGED from [com.android.support:design:22.2.1] /Users/rsladek/Sources/coursera_java-for-android/week2/assignment/src/app/build/intermediates/exploded-aar/com.android.support/design/22.2.1/AndroidManifest.xml:20:5-43
MERGED from [com.android.support:appcompat-v7:22.2.1] /Users/rsladek/Sources/coursera_java-for-android/week2/assignment/src/app/build/intermediates/exploded-aar/com.android.support/appcompat-v7/22.2.1/AndroidManifest.xml:20:5-43
MERGED from [com.android.support:support-v4:22.2.1] /Users/rsladek/Sources/coursera_java-for-android/week2/assignment/src/app/build/intermediates/exploded-aar/com.android.support/support-v4/22.2.1/AndroidManifest.xml:20:5-43
MERGED from [com.android.support:support-v4:22.2.1] /Users/rsladek/Sources/coursera_java-for-android/week2/assignment/src/app/build/intermediates/exploded-aar/com.android.support/support-v4/22.2.1/AndroidManifest.xml:20:5-43
	android:targetSdkVersion
		INJECTED from /Users/rsladek/Sources/coursera_java-for-android/week2/assignment/src/app/src/main/AndroidManifest.xml
		INJECTED from /Users/rsladek/Sources/coursera_java-for-android/week2/assignment/src/app/src/main/AndroidManifest.xml
	android:minSdkVersion
		INJECTED from /Users/rsladek/Sources/coursera_java-for-android/week2/assignment/src/app/src/main/AndroidManifest.xml
		INJECTED from /Users/rsladek/Sources/coursera_java-for-android/week2/assignment/src/app/src/main/AndroidManifest.xml
